Panel Regression: Fixed Effect and Demeaned Regressioin
…
Panel Data II

## # A tibble: 306 × 4
##    state   year  deaths cell_plans
##    <fct>   <fct>  <dbl>      <dbl>
##  1 Alabama 2007    18.1      8136.
##  2 Alabama 2008    16.3      8494.
##  3 Alabama 2009    13.8      8979.
##  4 Alabama 2010    13.4      9055.
##  5 Alabama 2011    13.8      9341.
##  6 Alabama 2012    13.3      9434.
##  7 Alaska  2007    16.3      6730.
##  8 Alaska  2008    12.7      5581.
##  9 Alaska  2009    13.0      8390.
## 10 Alaska  2010    11.7      8561.
## # … with 296 more rows
## # ℹ Use `print(n = ...)` to see more rows

Panel or Longitudinal data contains

repeated observations \((t)\)

on multiple individuals \((i)\)

Panel Data II

## # A tibble: 306 × 4
##    state   year  deaths cell_plans
##    <fct>   <fct>  <dbl>      <dbl>
##  1 Alabama 2007    18.1      8136.
##  2 Alabama 2008    16.3      8494.
##  3 Alabama 2009    13.8      8979.
##  4 Alabama 2010    13.4      9055.
##  5 Alabama 2011    13.8      9341.
##  6 Alabama 2012    13.3      9434.
##  7 Alaska  2007    16.3      6730.
##  8 Alaska  2008    12.7      5581.
##  9 Alaska  2009    13.0      8390.
## 10 Alaska  2010    11.7      8561.
## # … with 296 more rows
## # ℹ Use `print(n = ...)` to see more rows
…
on multiple individuals \((i)\)

Thus, our regression equation looks like:

\[
\begin{align}
  \hat{Y_{\color{red}{i}\color{blue}{t}}} = \beta_0 + \beta_1 X_{\color{red}{i}\color{blue}{t}} + u_{\color{red}{i}\color{blue}{t}}
\end{align}
\]

for individual $i$ in time $t$.

Panel Data: Our Motivating Example

## # A tibble: 306 × 4
##    state   year  deaths cell_plans
##    <fct>   <fct>  <dbl>      <dbl>
##  1 Alabama 2007    18.1      8136.
##  2 Alabama 2008    16.3      8494.
##  3 Alabama 2009    13.8      8979.
##  4 Alabama 2010    13.4      9055.
##  5 Alabama 2011    13.8      9341.
##  6 Alabama 2012    13.3      9434.
##  7 Alaska  2007    16.3      6730.
##  8 Alaska  2008    12.7      5581.
##  9 Alaska  2009    13.0      8390.
## 10 Alaska  2010    11.7      8561.
## # … with 296 more rows
## # ℹ Use `print(n = ...)` to see more rows
…
The Data II

phones %>%
  count(state)
## # A tibble: 51 × 2
##    state                    n
##    <fct>                <int>
##  1 Alabama                  6
##  2 Alaska                   6
##  3 Arizona                  6
##  4 Arkansas                 6
##  5 California               6
##  6 Colorado                 6
##  7 Connecticut              6
##  8 Delaware                 6
##  9 District of Columbia     6
## 10 Florida                  6
## # … with 41 more rows
## # ℹ Use `print(n = ...)` to see more rows
…
The Data III

phones %>%
  distinct(state)
## # A tibble: 51 × 1
##    state               
##    <fct>               
##  1 Alabama             
##  2 Alaska              
##  3 Arizona             
##  4 Arkansas            
##  5 California          
##  6 Colorado            
##  7 Connecticut         
##  8 Delaware            
##  9 District of Columbia
## 10 Florida             
## # … with 41 more rows
## # ℹ Use `print(n = ...)` to see more rows
…
Our Example in R I

\[\widehat{\text{Deaths}_{it}}=\beta_0+\beta_1\text{Cell Phones}_{it}+\text{Alaska}_i+ \cdots +\text{Wyoming}_i\]

If state is a factor variable, just include it in the regression

R automatically creates \(N-1\) dummy variables and includes them in the regression

Keeps intercept and leaves out first group dummy

Our Example in R II

fe_reg_1 <- lm(deaths ~ cell_plans + state, data = phones)
fe_reg_1 %>% tidy()
## # A tibble: 52 × 5
##    term                      estimate std.error statistic  p.value
##    <chr>                        <dbl>     <dbl>     <dbl>    <dbl>
##  1 (Intercept)               25.5      1.02         25.1  1.24e-70
##  2 cell_plans                -0.00120  0.000101    -11.9  3.48e-26
##  3 stateAlaska               -2.48     0.675        -3.68 2.82e- 4
##  4 stateArizona              -1.51     0.670        -2.25 2.51e- 2
##  5 stateArkansas              3.19     0.666         4.79 2.83e- 6
##  6 stateCalifornia           -4.98     0.666        -7.48 1.21e-12
##  7 stateColorado             -4.34     0.665        -6.53 3.59e-10
##  8 stateConnecticut          -6.60     0.665        -9.91 8.70e-20
##  9 stateDelaware             -2.10     0.667        -3.15 1.84e- 3
## 10 stateDistrict of Columbia  6.36     1.29          4.93 1.50e- 6
## # … with 42 more rows
## # ℹ Use `print(n = ...)` to see more rows
…
Ignore all differences between groups, only look at differences within groups over time

De-Meaning the Data in R I

# get means of Y and X by state
means_state<-phones %>%
  group_by(state) %>%
  summarize(avg_deaths = mean(deaths),
            avg_phones = mean(cell_plans))

# look at it
means_state

## # A tibble: 51 × 3
##    state                avg_deaths avg_phones
##    <fct>                     <dbl>      <dbl>
##  1 Alabama                   14.8       8906.
##  2 Alaska                    13.6       7818.
##  3 Arizona                   14.2       8097.
##  4 Arkansas                  17.5       9268.
##  5 California                 9.66      9030.
##  6 Colorado                  10.4       8982.
##  7 Connecticut                8.14      8948.
##  8 Delaware                  12.2       9304.
##  9 District of Columbia       8.02     19811.
## 10 Florida                   13.5       9079.
## # … with 41 more rows
## # ℹ Use `print(n = ...)` to see more rows
…
Least Squares Dummy Variable (LSDV) Approach: add dummies for both groups and time periods (separate intercepts for groups and times)

Fully De-meaned data: \[\tilde{Y}_{it}=\beta_1\tilde{X}_{it}+\tilde{\nu}_{it}\]

where for each variable: \(\tilde{var}_{it}=var_{it}-\overline{var}_{t}-\overline{var}_{i}\)

Hybrid: de-mean for one effect (groups or years) and add dummies for the other effect (years or groups)

LSDV Method

fe2_reg_1 <- lm(deaths ~ cell_plans + state + year,
                data = phones)
fe2_reg_1 %>% tidy()
## # A tibble: 57 × 5
##    term                       estimate std.error statistic  p.value
##    <chr>                         <dbl>     <dbl>     <dbl>    <dbl>
##  1 (Intercept)               18.9       1.45         13.0  5.43e-30
##  2 cell_plans                -0.000300  0.000172     -1.74 8.34e- 2
##  3 stateAlaska               -1.50      0.624        -2.40 1.70e- 2
##  4 stateArizona              -0.779     0.611        -1.27 2.04e- 1
##  5 stateArkansas              2.87      0.599         4.79 2.90e- 6
##  6 stateCalifornia           -5.09      0.596        -8.55 1.30e-15
##  7 stateColorado             -4.41      0.595        -7.41 1.95e-12
##  8 stateConnecticut          -6.63      0.595       -11.1  1.17e-23
##  9 stateDelaware             -2.46      0.599        -4.10 5.55e- 5
## 10 stateDistrict of Columbia -3.50      1.97         -1.78 7.66e- 2
## # … with 47 more rows
## # ℹ Use `print(n = ...)` to see more rows
…
